<?xml version="1.0" encoding="UTF-8" standalone="no"?>
<!-- Created with Inkscape (http://www.inkscape.org/) -->

<svg
   xmlns:dc="http://purl.org/dc/elements/1.1/"
   xmlns:cc="http://creativecommons.org/ns#"
   xmlns:rdf="http://www.w3.org/1999/02/22-rdf-syntax-ns#"
   xmlns:svg="http://www.w3.org/2000/svg"
   xmlns="http://www.w3.org/2000/svg"
   xmlns:sodipodi="http://sodipodi.sourceforge.net/DTD/sodipodi-0.dtd"
   xmlns:inkscape="http://www.inkscape.org/namespaces/inkscape"
   width="744.09448819"
   height="1052.3622047"
   id="svg2"
   version="1.1"
   inkscape:version="0.48.2 r9819"
   sodipodi:docname="drawing.svg">
  <defs
     id="defs4" />
  <sodipodi:namedview
     id="base"
     pagecolor="#ffffff"
     bordercolor="#666666"
     borderopacity="1.0"
     inkscape:pageopacity="0.0"
     inkscape:pageshadow="2"
     inkscape:zoom="0.98994949"
     inkscape:cx="354.72271"
     inkscape:cy="553.51707"
     inkscape:document-units="px"
     inkscape:current-layer="layer1"
     showgrid="false"
     inkscape:window-width="1618"
     inkscape:window-height="1028"
     inkscape:window-x="54"
     inkscape:window-y="-8"
     inkscape:window-maximized="1" />
  <metadata
     id="metadata7">
    <rdf:RDF>
      <cc:Work
         rdf:about="">
        <dc:format>image/svg+xml</dc:format>
        <dc:type
           rdf:resource="http://purl.org/dc/dcmitype/StillImage" />
        <dc:title></dc:title>
      </cc:Work>
    </rdf:RDF>
  </metadata>
  <g
     inkscape:label="Layer 1"
     inkscape:groupmode="layer"
     id="layer1">
    <text
       xml:space="preserve"
       style="font-size:40px;font-style:normal;font-variant:normal;font-weight:normal;font-stretch:normal;line-height:125%;letter-spacing:0px;word-spacing:0px;fill:#000000;fill-opacity:1;stroke:none;font-family:FontAwesome;-inkscape-font-specification:FontAwesome"
       x="94.285713"
       y="415.21933"
       id="text2985"
       sodipodi:linespacing="125%"><tspan
         sodipodi:role="line"
         id="tspan2987"
         x="94.285713"
         y="415.21933" /></text>
    <path
       transform="translate(-45.714286,-188.57143)"
       style="fill:#087ab9;fill-opacity:1;fill-rule:evenodd;stroke:none"
       d="m 248.49752,752.34686 c 0,38.49454 -31.20599,69.70053 -69.70052,69.70053 -38.49454,0 -69.70053,-31.20599 -69.70053,-69.70053 0,-38.49453 31.20599,-69.70052 69.70053,-69.70052 38.49453,0 69.70052,31.20599 69.70052,69.70052 z"
       id="path2993" />
    <g
       style="font-size:54.14181137px;font-style:normal;font-variant:normal;font-weight:normal;font-stretch:normal;line-height:125%;letter-spacing:0px;word-spacing:0px;fill:#ffffff;fill-opacity:1;stroke:none;font-family:FontAwesome;-inkscape-font-specification:FontAwesome"
       id="text2989">
      <path
         d="m 111.52249,584.86089 0,-8.70156 8.70156,0 0,8.70156 z m 10.63524,0 0,-8.70156 9.6684,0 0,8.70156 z m -10.63524,-10.63524 0,-9.6684 8.70156,0 0,9.6684 z m 10.63524,0 0,-9.6684 9.6684,0 0,9.6684 z m -10.63524,-11.60208 0,-8.70157 8.70156,0 0,8.70157 z m 22.23732,22.23732 0,-8.70156 9.66841,0 0,8.70156 z m -11.60208,-22.23732 0,-8.70157 9.6684,0 0,8.70157 z m 23.20417,22.23732 0,-8.70156 8.70156,0 0,8.70156 z m -11.60209,-10.63524 0,-9.6684 9.66841,0 0,9.6684 z m -10.63524,-26.10469 c -0.008,0.26504 -0.10513,0.49038 -0.29081,0.67604 -0.1857,0.18572 -0.41104,0.28265 -0.67603,0.2908 l -1.93368,0 c -0.26501,-0.008 -0.49036,-0.10508 -0.67603,-0.2908 -0.1857,-0.18566 -0.28264,-0.411 -0.29081,-0.67604 l 0,-8.70156 c 0.008,-0.26496 0.10511,-0.4903 0.29081,-0.67603 0.18567,-0.18565 0.41102,-0.28258 0.67603,-0.29081 l 1.93368,0 c 0.26499,0.008 0.49033,0.10516 0.67603,0.29081 0.18568,0.18573 0.28261,0.41107 0.29081,0.67603 l 0,8.70156 z m 22.23733,26.10469 0,-9.6684 8.70156,0 0,9.6684 z m -11.60209,-11.60208 0,-8.70157 9.66841,0 0,8.70157 z m 11.60209,0 0,-8.70157 8.70156,0 0,8.70157 z m 0.96684,-14.50261 c -0.008,0.26504 -0.10516,0.49038 -0.29081,0.67604 -0.18573,0.18572 -0.41107,0.28265 -0.67603,0.2908 l -1.93368,0 c -0.26504,-0.008 -0.49038,-0.10508 -0.67604,-0.2908 -0.18572,-0.18566 -0.28266,-0.411 -0.2908,-0.67604 l 0,-8.70156 c 0.008,-0.26496 0.10508,-0.4903 0.2908,-0.67603 0.18566,-0.18565 0.411,-0.28258 0.67604,-0.29081 l 1.93368,0 c 0.26496,0.008 0.4903,0.10516 0.67603,0.29081 0.18565,0.18573 0.28258,0.41107 0.29081,0.67603 l 0,8.70156 z m 11.60208,-1.93368 c -0.029,-1.0864 -0.4092,-1.99533 -1.14057,-2.72679 -0.73147,-0.73139 -1.6404,-1.11158 -2.72679,-1.14057 l -3.86736,0 0,-2.90052 c -0.0353,-1.36461 -0.50864,-2.50266 -1.42005,-3.41415 -0.91149,-0.91141 -2.04954,-1.38475 -3.41415,-1.42005 l -1.93368,0 c -1.36469,0.0353 -2.50274,0.50865 -3.41416,1.42005 -0.91148,0.91149 -1.38483,2.04954 -1.42005,3.41415 l 0,2.90052 -11.60208,0 0,-2.90052 c -0.0353,-1.36461 -0.50862,-2.50266 -1.42005,-3.41415 -0.91146,-0.91141 -2.04951,-1.38475 -3.41415,-1.42005 l -1.93368,0 c -1.36467,0.0353 -2.50272,0.50865 -3.41415,1.42005 -0.91146,0.91149 -1.38481,2.04954 -1.42005,3.41415 l 0,2.90052 -3.86736,0 c -1.08644,0.029 -1.99537,0.40919 -2.72679,1.14057 -0.73143,0.73146 -1.11162,1.64039 -1.14057,2.72679 l 0,38.67361 c 0.0289,1.08643 0.40914,1.99536 1.14057,2.72679 0.73142,0.73142 1.64035,1.11161 2.72679,1.14057 l 42.54097,0 c 1.08639,-0.029 1.99531,-0.40915 2.72679,-1.14057 0.73137,-0.73143 1.11156,-1.64036 1.14057,-2.72679 z"
         style=""
         id="path3784" />
    </g>
    <g
       id="g3005"
       transform="translate(298.85797,173.38228)">
      <g
         style="display:inline"
         transform="translate(-60.714298,-454.29077)"
         id="layer1-9"
         inkscape:label="Layer 1" />
      <g
         transform="translate(0,1.1428486)"
         style="display:inline"
         inkscape:label="Layer"
         id="layer2">
        <path
           sodipodi:nodetypes="cccc"
           inkscape:connector-curvature="0"
           id="path3795"
           d="m 95.000003,93.857147 c 0,0 0,18.645203 0,75.000003 0,-42.5 32.499997,-75.000003 74.999997,-75.000003 -53.55965,0 -74.999997,0 -74.999997,0 z"
           style="fill:#ed088c;fill-opacity:1;stroke:none;display:inline" />
        <path
           sodipodi:nodetypes="cccc"
           inkscape:connector-curvature="0"
           id="path3795-7"
           d="m 75.000002,93.857147 c 0,0 0,18.645203 0,75.000003 0,-42.5 -32.5,-75.000003 -75.000002,-75.000003 53.559647,0 75.000002,0 75.000002,0 z"
           style="fill:#087ab9;fill-opacity:1;stroke:none;display:inline" />
        <path
           sodipodi:nodetypes="cccc"
           inkscape:connector-curvature="0"
           id="path3795-4"
           d="m 95.000003,73.857151 c 0,0 0,-18.6452 0,-74.9999996 C 95.000003,41.357151 127.5,73.857151 170,73.857151 c -53.55964,0 -74.999997,0 -74.999997,0 z"
           style="fill:#087ab9;fill-opacity:1;stroke:none;display:inline" />
        <path
           sodipodi:nodetypes="cccc"
           inkscape:connector-curvature="0"
           id="path3795-7-0"
           d="m 75.000002,73.857151 c 0,0 0,-18.6452 0,-74.9999996 C 75.000002,41.357151 42.500001,73.857151 0,73.857151 c 53.559642,0 75.000002,0 75.000002,0 z"
           style="fill:#ed088c;fill-opacity:1;stroke:none;display:inline" />
      </g>
    </g>
    <path
       style="fill:none;stroke:#999999;stroke-width:1;stroke-linecap:butt;stroke-linejoin:miter;stroke-miterlimit:4;stroke-opacity:1;stroke-dasharray:6, 6;stroke-dashoffset:0"
       d="m 114.42929,484.34044 c 0,0 99.80102,-177.51923 222.94635,-177.51923"
       id="path3781"
       inkscape:connector-curvature="0"
       sodipodi:nodetypes="cc" />
  </g>
</svg>
